…
``` r
anti_join(rev4ons, rev4un, by = c("industrial-classification-2007" = "Code"))
```

    ## Warning: Column `industrial-classification-2007`/`Code` joining character
    ## vector and factor, coercing into character vector

    ## # A tibble: 1,079 x 5
    ##    `industrial-classification… name       parent   `start-date` `end-date`
    ##    <chr>                       <chr>      <chr>    <chr>        <chr>     
    ##  1 This division includes the… <NA>       industr… <NA>         <NA>      
    ##  2 99.00                       Activitie… industr… <NA>         <NA>      
    ##  3 99.0                        Activitie… industr… <NA>         <NA>      
    ##  4 98.20                       Undiffere… industr… <NA>         <NA>      
    ##  5 98.2                        Undiffere… industr… <NA>         <NA>      
    ##  6 98.10                       Undiffere… industr… <NA>         <NA>      
    ##  7 98.1                        Undiffere… industr… <NA>         <NA>      
    ##  8 97.00                       Activitie… industr… <NA>         <NA>      
    ##  9 97.0                        Activitie… industr… <NA>         <NA>      
    ## 10 96.09                       Other per… industr… <NA>         <NA>      
    ## # ... with 1,069 more rows

``` r
anti_join(rev4un, rev4ons, by = c("Code" = "industrial-classification-2007"))
```

    ## Warning: Column `Code`/`industrial-classification-2007` joining factor and
    ## character vector, coercing into character vector

    ## # A tibble: 657 x 5
    ##    Sortorder Code  Description  ExplanatoryNoteInclusion ExplanatoryNoteE…
    ##        <int> <fct> <fct>        <fct>                    <fct>            
    ##  1        40 011   Growing of … This group includes the… ""               
    ##  2        50 0111  Growing of … "This class includes al… "This class excl…
    ##  3        60 0112  Growing of … "This class includes:\n… ""               
    ##  4        70 0113  Growing of … "This class includes:\n… "This class excl…
    ##  5        80 0114  Growing of … "This class includes:\n… "This class excl…
    ##  6        90 0115  Growing of … "This class includes:\n… ""               
    ##  7       110 0116  Growing of … "This class includes:\n… ""               
    ##  8       130 0119  Growing of … "This class includes th… "This class excl…
    ##  9       140 012   Growing of … This group includes the… ""               
    ## 10       150 0121  Growing of … "This class includes:\n… "This class excl…
    ## # ... with 647 more rows

``` r
inner_join(rev4un, rev4ons, by = c("Code" = "industrial-classification-2007")) %>%
  select(Code, ons_name = name, un_name = Description)
```

    ## Warning: Column `Code`/`industrial-classification-2007` joining factor and
    ## character vector, coercing into character vector

    ## # A tibble: 109 x 3
    ##    Code  ons_name                          un_name                        
    ##    <chr> <chr>                             <fct>                          
    ##  1 A     Agriculture, forestry and fishing Agriculture, forestry and fish…
    ##  2 01    Crop and animal production, hunt… Crop and animal production, hu…
    ##  3 02    Forestry and logging              Forestry and logging           
    ##  4 03    Fishing and aquaculture           Fishing and aquaculture        
    ##  5 B     Mining and quarrying              Mining and quarrying           
    ##  6 05    Mining of coal and lignite        Mining of coal and lignite     
    ##  7 06    Extraction of crude petroleum an… Extraction of crude petroleum …
    ##  8 07    Mining of metal ores              Mining of metal ores           
    ##  9 08    Other mining and quarrying        Other mining and quarrying     
    ## 10 09    Mining support service activities Mining support service activit…
    ## # ... with 99 more rows
…
